%YAML 1.1
%TAG !u! tag:unity3d.com,2011:
--- !u!61 &2376239226534083085
BoxCollider2D:
  m_ObjectHideFlags: 0
  m_CorrespondingSourceObject: {fileID: 0}
  m_PrefabInstance: {fileID: 0}
  m_PrefabAsset: {fileID: 0}
  m_GameObject: {fileID: 3187265599392941205}
  m_Enabled: 1
  m_Density: 1
  m_Material: {fileID: 0}
  m_IsTrigger: 0
  m_UsedByEffector: 0
  m_UsedByComposite: 0
  m_Offset: {x: 0.123, y: 0.1316}
  m_SpriteTilingProperty:
    border: {x: 0, y: 0, z: 0, w: 0}
    pivot: {x: 0, y: 0}
    oldSize: {x: 0, y: 0}
    newSize: {x: 0, y: 0}
    adaptiveTilingThreshold: 0
    drawMode: 0
    adaptiveTiling: 0
  m_AutoTiling: 0
  serializedVersion: 2
  m_Size: {x: 0.266, y: 0.2632}
  m_EdgeRadius: 0
--- !u!1 &2376239227660663430
GameObject:
  m_ObjectHideFlags: 0
  m_CorrespondingSourceObject: {fileID: 0}
  m_PrefabInstance: {fileID: 0}
  m_PrefabAsset: {fileID: 0}
  serializedVersion: 6
  m_Component:
  - component: {fileID: 2376239227660663429}
  m_Layer: 0
  m_Name: Cabinet
  m_TagString: Untagged
  m_Icon: {fileID: 0}
  m_NavMeshLayer: 0
  m_StaticEditorFlags: 0
  m_IsActive: 1
--- !u!4 &2376239227660663429
Transform:
  m_ObjectHideFlags: 0
  m_CorrespondingSourceObject: {fileID: 0}
  m_PrefabInstance: {fileID: 0}
  m_PrefabAsset: {fileID: 0}
  m_GameObject: {fileID: 2376239227660663430}
  m_LocalRotation: {x: -0, y: -0, z: -0, w: 1}
  m_LocalPosition: {x: -2.89, y: 0, z: -2.95}
  m_LocalScale: {x: 1, y: 1, z: 1}
  m_Children:
  - {fileID: 2841948942878629423}
  m_Father: {fileID: 0}
  m_RootOrder: 0
  m_LocalEulerAnglesHint: {x: 0, y: 0, z: 0}
--- !u!1001 &2376239227838839236
PrefabInstance:
  m_ObjectHideFlags: 0
  serializedVersion: 2
  m_Modification:
    m_TransformParent: {fileID: 2376239227660663429}
    m_Modifications:
    - target: {fileID: -8679921383154817045, guid: 8ff13400e1d9bed419b9c7b8b9013593,
        type: 3}
      propertyPath: m_LocalPosition.x
      value: 0
      objectReference: {fileID: 0}
    - target: {fileID: -8679921383154817045, guid: 8ff13400e1d9bed419b9c7b8b9013593,
        type: 3}
      propertyPath: m_LocalPosition.y
      value: 0
      objectReference: {fileID: 0}
    - target: {fileID: -8679921383154817045, guid: 8ff13400e1d9bed419b9c7b8b9013593,
        type: 3}
      propertyPath: m_LocalPosition.z
      value: -2.5
      objectReference: {fileID: 0}
    - target: {fileID: -8679921383154817045, guid: 8ff13400e1d9bed419b9c7b8b9013593,
        type: 3}
      propertyPath: m_LocalRotation.x
      value: -0
      objectReference: {fileID: 0}
    - target: {fileID: -8679921383154817045, guid: 8ff13400e1d9bed419b9c7b8b9013593,
        type: 3}
      propertyPath: m_LocalRotation.y
      value: -0
      objectReference: {fileID: 0}
    - target: {fileID: -8679921383154817045, guid: 8ff13400e1d9bed419b9c7b8b9013593,
        type: 3}
      propertyPath: m_LocalRotation.z
      value: -0
      objectReference: {fileID: 0}
    - target: {fileID: -8679921383154817045, guid: 8ff13400e1d9bed419b9c7b8b9013593,
        type: 3}
      propertyPath: m_LocalRotation.w
      value: 1
      objectReference: {fileID: 0}
    - target: {fileID: -8679921383154817045, guid: 8ff13400e1d9bed419b9c7b8b9013593,
        type: 3}
      propertyPath: m_RootOrder
      value: 0
      objectReference: {fileID: 0}
    - target: {fileID: -8679921383154817045, guid: 8ff13400e1d9bed419b9c7b8b9013593,
        type: 3}
      propertyPath: m_LocalEulerAnglesHint.x
      value: 0
      objectReference: {fileID: 0}
    - target: {fileID: -8679921383154817045, guid: 8ff13400e1d9bed419b9c7b8b9013593,
        type: 3}
      propertyPath: m_LocalEulerAnglesHint.y
      value: 0
      objectReference: {fileID: 0}
    - target: {fileID: -8679921383154817045, guid: 8ff13400e1d9bed419b9c7b8b9013593,
        type: 3}
      propertyPath: m_LocalEulerAnglesHint.z
      value: 0
      objectReference: {fileID: 0}
    - target: {fileID: -8679921383154817045, guid: 8ff13400e1d9bed419b9c7b8b9013593,
        type: 3}
      propertyPath: m_LocalScale.x
      value: 4
      objectReference: {fileID: 0}
    - target: {fileID: -8679921383154817045, guid: 8ff13400e1d9bed419b9c7b8b9013593,
        type: 3}
      propertyPath: m_LocalScale.y
      value: 4
      objectReference: {fileID: 0}
    - target: {fileID: -8679921383154817045, guid: 8ff13400e1d9bed419b9c7b8b9013593,
        type: 3}
      propertyPath: m_LocalScale.z
      value: 4
      objectReference: {fileID: 0}
    - target: {fileID: 919132149155446097, guid: 8ff13400e1d9bed419b9c7b8b9013593,
        type: 3}
      propertyPath: m_Name
      value: cabinetBedDrawerTable
      objectReference: {fileID: 0}
    - target: {fileID: 919132149155446097, guid: 8ff13400e1d9bed419b9c7b8b9013593,
        type: 3}
      propertyPath: m_Layer
      value: 8
      objectReference: {fileID: 0}
    - target: {fileID: 5528078466911944822, guid: 8ff13400e1d9bed419b9c7b8b9013593,
        type: 3}
      propertyPath: m_Layer
      value: 8
      objectReference: {fileID: 0}
    m_RemovedComponents: []
  m_SourcePrefab: {fileID: 100100000, guid: 8ff13400e1d9bed419b9c7b8b9013593, type: 3}
--- !u!1 &3187265599392941205 stripped
GameObject:
  m_CorrespondingSourceObject: {fileID: 919132149155446097, guid: 8ff13400e1d9bed419b9c7b8b9013593,
    type: 3}
  m_PrefabInstance: {fileID: 2376239227838839236}
  m_PrefabAsset: {fileID: 0}
--- !u!4 &2841948942878629423 stripped
Transform:
  m_CorrespondingSourceObject: {fileID: -8679921383154817045, guid: 8ff13400e1d9bed419b9c7b8b9013593,
    type: 3}
  m_PrefabInstance: {fileID: 2376239227838839236}
  m_PrefabAsset: {fileID: 0}
